Assignment 1
…
library(tidyr)
  
women_ownership <- wb_search("firms with female participation in ownership")
print(women_ownership)

# A tibble: 2 × 3
  indicator_id     indicator                                      indicator_desc
  <chr>            <chr>                                          <chr>         
1 IC.FRM.FEMO.ZS   Firms with female participation in ownership … Firms with fe…
2 IC.FRM.GEN.GEND1 Percent of firms with female participation in… Percent of fi…

flfp_indicators <- wb_search("female labor force")
print(flfp_indicators, n=20)

# A tibble: 26 × 3
   indicator_id         indicator                                 indicator_desc
   <chr>                <chr>                                     <chr>         
 1 9.2.Employee.All     Employees (%), Female                     Share of the …
 2 9.2.Employee.B40     Employees-Bottom 40 Percent (%), Female   Share of the …
 3 9.2.Employee.T60     Employees-Top 60 Percent (%), Female      Share of the …
 4 9.2.Employer.All     Employers (%), Female                     Share of the …
 5 9.2.Employer.B40     Employers-Bottom 40 Percent (%), Female   Share of the …
 6 9.2.Employer.T60     Employers-Top 60 Percent (%), Female      Share of the …
 7 9.2.SelfEmp.All      Self-Employed (%), Female                 Share of the …
 8 9.2.SelfEmp.B40      Self-Employed-Bottom 40 Percent (%), Fem… Share of the …
 9 9.2.SelfEmp.T60      Self-Employed-Top 60 Percent (%), Female  Share of the …
10 9.2.Unemp.All        Unemployed (%), Female                    Share of the …
11 9.2.Unemp.B40        Unemployed-Bottom 40 Percent (%), Female  Share of the …
12 9.2.Unemp.T60        Unemployed-Top 60 Percent (%), Female     Share of the …
13 9.2.Unpaid.All       Unpaid Workers (%), Female                Share of the …
14 9.2.Unpaid.B40       Unpaid Workers-Bottom 40 Percent (%), Fe… Share of the …
15 9.2.Unpaid.T60       Unpaid Workers-Top 60 Percent (%), Female Share of the …
16 SL.TLF.CACT.FM.NE.ZS Ratio of female to male labor force part… Labor force p…
17 SL.TLF.CACT.FM.ZS    Ratio of female to male labor force part… Labor force p…
18 SL.TLF.TOTL.FE.IN    Labor force, female                       Female labor …
19 SL.TLF.TOTL.FE.ZS    Labor force, female (% of total labor fo… Female labor …
20 SL.UEM.1524.FE.NE.ZS Unemployment, youth female (% of female … Youth unemplo…
# ℹ 6 more rows
…
